This router's port number: 8003
This router's jrip_table: [{'Dest': '127.0.0.1:8002', 'Next': '127.0.0.1:8002', 'Cost': 5}, {'Dest': '127.0.0.1:8004', 'Next': '127.0.0.1:8004', 'Cost': 15}, {'Dest': '127.0.0.1:8001', 'Next': '127.0.0.1:8002', 'Cost': 15}]
This router's port number: 8003
This router's jrip_table: [{'Dest': '127.0.0.1:8002', 'Next': '127.0.0.1:8002', 'Cost': 5}, {'Dest': '127.0.0.1:8004', 'Next': '127.0.0.1:8004', 'Cost': 15}, {'Dest': '127.0.0.1:8001', 'Next': '127.0.0.1:8002', 'Cost': 15}]
