commands run:
#try2
#python jrip21.py -p 8000 -l 0 localhost:8001:10 localhost:8002:10
#python jrip21.py -p 8001 -l 0.4 localhost:8000:10
#python jrip21.py -p 8002 -l 0.3 localhost:8000:10  localhost:8001:10
